%YAML 1.1
%TAG !u! tag:unity3d.com,2011:
--- !u!78 &1
TagManager:
  serializedVersion: 2
  tags:
  - Enemy
  - Door
  - PowerUp
  - HitAll
  - Ground
  - EnemyWall
  - Fader
  - Boss
  layers:
  - Default
  - TransparentFX
  - Ignore Raycast
  - 
  - Water
  - UI
  - 
  - 
  - Player
  - Enemy
  - Collision
  - EnemyWall
  - Camera
  - HitBox
  - HurtBox
  - Platform
  - PlayerPlatform
  - NoPlayerOrEnemy
  - 
  - 
  - 
  - 
  - 
  - 
  - 
  - 
  - 
  - 
  - 
  - 
  - 
  - 
  m_SortingLayers:
  - name: Background
    uniqueID: 204921979
    locked: 0
  - name: Back
    uniqueID: 3344210685
    locked: 0
  - name: Default
    uniqueID: 0
    locked: 0
  - name: Front
    uniqueID: 3549991135
    locked: 0
  - name: Foreground
    uniqueID: 1652766927
    locked: 0
  - name: Item
    uniqueID: 3656090981
    locked: 0
  - name: UI
    uniqueID: 3167128565
    locked: 0
  - name: Actor
    uniqueID: 1061702339
    locked: 0
  - name: Border
    uniqueID: 3384621151
    locked: 0
